<?xml version="1.0" standalone="no"?>
<svg version="1.1" xmlns="http://www.w3.org/2000/svg">
  <path d="M 950,81 A 107,107 0 0,1 950,295 A 107,107 0 0,1 950,81 z
             M 950,139 A 49,49 0 0,0 950,237 A 49,49 0 0,0 950,139 z" fill="red" fill-rule="evenodd"/>
</svg>

